{
  "name": "HTML GPSd monitor",
  "short_name": "hgps",
  "display": "minimal-ui",
  "start_url": "/hgps2.htm",
  "theme_color": "#ffffff",
  "background_color": "#ffffff",
  "icons": [
    {
      "src": "ntpsec-icon.png",
      "sizes": "64x74",
      "type": "image/png"
    },
    {
      "src": "favicon.ico",
      "sizes": "16x16",
      "type": "image/ico"
    }
  ]
}
