<svg xmlns="http://www.w3.org/2000/svg" xmlns:xml="http://www.w3.org/XML/1998/namespace" xmlns:xlink="http://www.w3.org/1999/xlink" onload="init(evt)" version="1.1">
 <desc>Towers of Hanoi</desc>
 <style type="text/css"><![CDATA[
   rect {stroke:none;fill:grey}
   #pr1 {fill:blue;opacity:0.1}
   svg > rect:nth-child(6n+3) {fill:red}
   svg > rect:nth-child(6n+4) {fill:orange}
   svg > rect:nth-child(6n+5) {fill:yellow}
   svg > rect:nth-child(6n+0) {fill:green}
   svg > rect:nth-child(6n+1) {fill:blue}
   svg > rect:nth-child(6n+2) {fill:purple}
   #d1,#d2,#d3,#d4,#d5,#d6 {opacity:0.4}
   #d7,#d8,#d9,#d10,#d11,#d12 {opacity:0.6}
   #d13,#d14,#d15,#d16,#d17,#d18 {opacity:0.8}
  ]]></style>
<script type="text/ecmascript" xlink:href="js/jqml.js"></script>
<script type="text/ecmascript"><![CDATA[
var SVGns = "http://www.w3.org/2000/svg", XLINKns="http://www.w3.org/1999/xlink";
var SVGDocument, SVGRoot, G_stack=[];
 var bong;
 var deltat=310;
 var layers=7;
 var wgutter=15;
 var wstep=15;
 var hthick=15;
 var spun, GS, stacks=[];
 var mvorigin=-1, started, glock=started;

 var minc=1<<6;
 var mstep=1;
 var mcap=1<<layers;

 function init(evt) {
     var f, h, i;
     started=new Date().valueOf();
     SVGDocument = evt.target.ownerDocument;
     SVGRoot = SVGDocument.documentElement;
     G_dum = SVGDocument.getElementById("dum");
     GS=(layers+2)*2*wstep;

     f=2*hthick*(layers+2);
	h=SVGDocument.getElementById("hide");
	i=jqmlsvg(['g',{'id':'pspike'},['rect',{'id':'pr1','rx':hthick,'ry':hthick,'height':f,'width':GS,'x':-GS/2,'y':0}],['rect',{'id':'pr2','rx':hthick,'ry':hthick,'height':2*hthick,'width':GS,'x':-GS/2,'y':f-2*hthick}],['rect',{'id':'pr3','rx':hthick,'ry':hthick,'height':f,'width':2*hthick,'x':-hthick,'y':0}]]);
	h.appendChild(i);

     for(f=0;f<3;f++)
       {
	 stacks[f]=[];
	 i=jqmlsvg(['use',{'id':'stack'+f,'onclick':'input('+f+')','transform':'translate('+(175+f*325)+',90)'}]);
         i.setAttributeNS(XLINKns, "xlink:href", "#pspike");
	 SVGRoot.appendChild(i);
	 SVGDocument.getElementById("stack"+f).setAttribute("transform","translate("+((f+1/2)*(GS+wgutter))+", "+6*hthick+")");
       }

     for(f=1;f<=layers;f++) {
	 i=jqmlsvg(['rect',{'x':((GS+wgutter)/2-(5+wstep*(f+1))),'y':6*hthick+(2*hthick*f),"id":"d"+f,"rx":hthick,"ry":hthick,"height":2*hthick,"width":10+2*wstep*(f+1)}]);
         SVGRoot.appendChild(i);
	 stacks[0].unshift(f);
       }
     window.onkeyup = function(evt){
         keys(evt);
       }

   }


 function paintmv(from, to) {
    var e, f, path, diff, now, c, pre, post, x, shim;
    /* move the disc */
    pre=stacks[from].length;
    post=stacks[to].length+1;
    c=stacks[from][pre-1];
    stacks[from].pop();
    stacks[to].push(c);

    /*
    // 10 *30 = pre 1	9*30 pre 2
    // 10 *30 = c 6	9*30 c 5
    // 11-pre + 14 - c
    */
    x=(layers+1)-(pre+c);

    e=SVGDocument.getElementById("d"+c);
    path="";
    path=path+"m "+((GS+wgutter)*from)+","+(2*hthick*x)+" ";
    path=path+"v -"+((2*hthick)*((layers+3)-pre))+" ";
    path=path+"h "+((GS+wgutter)*(to-from))+" ";
    path=path+"v "+(2*hthick*((layers+3)-post));

    now=new Date().valueOf();
    if(now<glock)
      { now=glock; }
    shim=((2*layers+6-post-pre+((layers+1)*wstep+6)*Math.abs(to-from)/(2*hthick))/deltat);
    glock=now+(shim*1000);
    diff=(50+now-started)/1000;
    f=jqmlsvg(['animateMotion',{"path":path,"dur":shim+"s","fill":"freeze","begin":diff}]);
    e.appendChild(f);
    mvorigin=-1;
  }

  function keys(e) {
      switch(e.key) {
          case " ":
          case "2": input(1); break;
          
          case "a":
          case "s":
          case "d":
          case "f":
          case "1": input(0); break;

          case "j":
          case "k":
          case "l":
          case ";":
          case "3": input(2); break;
        }
    }

 function input(stack) {
     if(mvorigin==-1) {
       mvorigin=stack;
       return;
       }
     if(mvorigin==stack) {
       mvorigin==-1;
       return;
       }
     move(stack);
   }
 function move(stack) {
     var a, b, c, d, e;
     a=stacks[mvorigin].length;
     if(a==0) {
       mvorigin=-1;
       return -1;
       }
     b=stacks[stack].length;
     c=stacks[mvorigin][a-1];
     if(b==0) {
       paintmv(mvorigin, stack);
       return 0;
       }
     d=stacks[stack][b-1];
     if(c<d) {
         paintmv(mvorigin, stack);
	 return 0;
       } else {
	 mvorigin=-1;
	 return -2;
       }
   }
]]></script><defs id="hide"></defs></svg>
